verilog xil_defaultlib --include "../../../ipstatic" \
"../../../ip/mmcm_gbt40_cfgbus/mmcm_gbt40_cfgbus_clk_wiz.v" \
"../../../ip/mmcm_gbt40_cfgbus/mmcm_gbt40_cfgbus.v" \

verilog xil_defaultlib "glbl.v"

nosort
